<?xml version="1.0" encoding="UTF-8"?>
<!DOCTYPE svg PUBLIC "-//W3C//DTD SVG 1.1//EN" "http://www.w3.org/Graphics/SVG/1.1/DTD/svg11.dtd">
<!-- Creator: CorelDRAW Home & Student X6 -->
<svg xmlns="http://www.w3.org/2000/svg" xml:space="preserve" width="43.3492mm" height="43.3492mm" version="1.1" style="shape-rendering:geometricPrecision; text-rendering:geometricPrecision; image-rendering:optimizeQuality; fill-rule:evenodd; clip-rule:evenodd"
viewBox="0 0 4335 4335"
 xmlns:xlink="http://www.w3.org/1999/xlink">
 <defs>
  <style type="text/css">
   <![CDATA[
    .fil0 {fill:black}
   ]]>
  </style>
 </defs>
 <g id="Layer_x0020_1">
  <metadata id="CorelCorpID_0Corel-Layer"/>
  <g id="_479262328">
   <path class="fil0" d="M2246 4141l-1 -1638c49,49 191,221 247,285l84 98c6,6 7,10 13,16 37,43 31,35 155,5 55,-14 728,-174 779,-182l0 946 -1276 469zm-463 -2867l0 0c-16,8 -498,117 -526,123 -265,59 -528,126 -788,182 -12,3 -23,7 -30,14l1 37c4,6 11,14 14,17l338 390c13,16 44,44 54,66 -15,12 -16,18 -27,29l-77 90c-7,9 -20,23 -27,31 -60,64 -166,195 -232,271l-20 22 2 80c13,4 31,6 62,14 91,22 241,60 325,75 5,52 1,783 1,888 0,113 -12,105 50,127 252,89 527,195 778,288 39,15 496,181 520,193l24 0c19,-10 43,-16 64,-25l1238 -456c25,-9 48,-12 52,-37l1 -984c49,-7 277,-65 354,-82 98,-22 22,-67 -32,-138l-301 -352c-34,-43 -26,-22 28,-90l106 -123c11,-12 14,-18 27,-31l79 -92c31,-41 117,-130 158,-184l0 -19c-12,-16 -7,-15 -32,-21l-298 -69c-113,-27 -226,-53 -339,-79 -114,-26 -226,-51 -339,-78 -56,-14 -114,-26 -171,-39 -29,-7 -56,-13 -84,-20l-75 -18c-13,-5 -3,-1 -8,-4l-22 0c-1,1 -2,1 -2,2 -1,0 -2,1 -2,2l-38 41c-5,6 -7,9 -13,16l-283 327c-21,22 -54,66 -77,86 -6,-6 -7,-9 -13,-15l-348 -401c-21,-23 -31,-37 -54,-57l-18 0zm-871 1457l0 0c91,17 292,67 391,91 38,9 470,114 487,110 13,-2 23,-17 33,-28l166 -194c6,-6 7,-9 13,-16 6,-7 9,-9 15,-17l140 -164c11,-12 16,-23 29,-31l0 1659 -1273 -470 0 -941zm1351 -301l0 0 129 152c5,5 6,9 11,14 5,6 7,6 12,13l34 41c18,19 30,35 48,55l71 83c8,11 15,16 23,27 12,15 38,41 45,55 27,0 129,-28 162,-35 99,-23 1079,-249 1097,-258 -5,-11 -24,-29 -34,-41l-258 -302c-7,-9 -7,-10 -16,-19 -82,-85 -37,-86 -127,-67 -89,19 -1185,275 -1198,282zm-489 441l0 0 -1256 -293 375 -440c12,-7 43,6 58,9 80,19 160,39 240,56 160,35 320,76 480,112 160,36 321,79 481,112 -6,13 -53,66 -67,81l-72 85c-5,6 -7,7 -12,13l-141 166c-7,7 -6,6 -12,13 -9,11 -16,18 -24,29 -8,10 -15,17 -23,27 -6,8 -20,23 -26,29zm413 -1038l0 0 -1 544 -1165 -275 1166 -269zm59 -1l0 0 1159 268c-20,12 -246,60 -291,70 -61,15 -843,200 -869,201l0 -539zm26 -53l0 0c6,-11 17,-23 24,-31l191 -219c6,-6 6,-8 11,-14l108 -124c11,-15 35,-43 48,-53l1260 291c-6,13 -76,91 -95,112l-48 55c-5,6 -5,8 -11,14l-226 259 -1263 -291zm-487 -440l0 0c8,17 58,68 72,85l23 27c6,7 7,10 13,16l35 40c8,11 15,16 23,27l142 165c12,15 61,67 68,80 -60,18 -240,56 -315,73 -76,18 -916,217 -952,218l-376 -439 1266 -291z"/>
   <path class="fil0" d="M2845 1040c42,19 81,56 145,79 63,23 125,30 194,38 6,54 -4,63 16,105 37,9 92,9 129,0 20,-42 10,-51 16,-105 248,-26 214,-59 339,-117 57,101 91,271 81,411l-1002 2c-9,-143 25,-312 82,-413zm397 45l0 0c-14,7 -14,-15 -14,60 0,28 -1,48 4,76l64 4 5 -107c-5,-49 1,-21 -14,-33l-44 0zm22 -48l0 0c69,0 75,7 79,72 200,-20 367,-79 383,-283l-923 0c15,203 181,262 382,283 4,-65 11,-72 79,-72zm-218 -259l0 0c-48,-486 483,-486 435,1l-435 -1zm-288 1l0 0c-6,80 2,128 37,189 30,54 -10,73 -34,144 -39,120 -46,255 -47,387l1100 0c-1,-133 -9,-268 -47,-387 -26,-80 -66,-86 -30,-150 32,-57 39,-111 33,-184l-236 -1c-17,-117 -13,-412 -270,-412 -257,0 -252,295 -270,412l-236 0z"/>
   <path class="fil0" d="M1319 1183l-3 -24 32 -6c-2,31 0,27 -28,30zm-931 -29l0 0 577 0c-5,42 -3,29 -119,29l-328 0c-111,0 -126,15 -130,-29zm928 -47l0 0 0 -356 98 -48c-6,77 -17,153 -29,225 -27,170 -7,179 -69,179zm-334 0l0 0c62,-179 250,-411 436,-451 -6,-122 -56,-251 -130,-285 -193,229 -193,206 -355,512 -123,232 -208,85 -264,82 -122,-5 -254,53 -282,142l596 0zm402 121l0 0c50,-340 187,-737 -95,-916 -29,18 -94,90 -121,124l-109 139c-143,189 -196,469 -329,364 -60,-47 -274,-14 -361,100 -50,66 -35,107 -17,192l645 0c24,-115 49,-167 104,-257 37,-60 112,-149 167,-182l1 439 115 -1z"/>
   <path class="fil0" d="M1701 520c9,-43 95,-185 118,-217 40,-54 128,-105 210,-127 86,140 284,140 370,0 82,23 170,74 210,127 23,31 110,176 118,217 -41,37 -67,60 -144,72 -23,-36 -50,-76 -80,-111 -102,159 1,544 3,618 1,30 1,4 -2,24 0,2 -2,9 -3,8 0,-1 -2,5 -3,8 -181,36 -391,22 -575,-1 -6,-33 36,-269 40,-334 6,-108 17,-238 -38,-323 -30,35 -57,75 -80,111 -71,-14 -107,-36 -145,-71zm636 -343l0 0c-107,10 -139,10 -246,0 40,73 206,73 246,0zm226 464l0 0c80,-5 196,-54 213,-117 8,-32 -86,-181 -106,-212 -56,-89 -81,-104 -185,-152 -42,-19 -73,-43 -126,-36 -340,46 -227,-52 -422,39 -101,47 -124,62 -179,149 -22,35 -119,179 -104,218 24,63 134,106 211,111 23,-29 22,-37 49,-60 23,211 -21,391 -54,587 151,51 557,51 708,0 -33,-196 -77,-375 -54,-587 27,23 26,32 49,60z"/>
   <path class="fil0" d="M1316 1107c62,0 43,-9 69,-179 11,-72 23,-148 29,-225l-98 48 0 356z"/>
   <path class="fil0" d="M388 1154c4,43 19,29 130,29l328 0c116,0 114,13 119,-29l-577 0z"/>
   <path class="fil0" d="M2337 177c-107,10 -139,10 -246,0 40,73 206,73 246,0z"/>
   <polygon class="fil0" points="3287,1085 3243,1085 3237,1218 3291,1218 "/>
   <path class="fil0" d="M3287 1085l5 133 -54 0 5 -133c-14,7 -14,-15 -14,60 0,28 -1,48 4,76l64 4 5 -107c-5,-49 1,-21 -14,-33z"/>
   <path class="fil0" d="M1319 1183c28,-3 27,2 28,-30l-32 6 3 24z"/>
  </g>
 </g>
</svg>
