"countryCode","codeA3","codeN3","region","countryName","stateCode","stateName","cityName"
"US","USA",840,"NA","United States","TX","Texas","Houston"
"US","USA",841,"NA","United States","AR","Arkansas","Little Rock"
"US","USA",842,"NA","United States","LA","Louisiana","New Orleans"
